Experiment 4/simpleMAC/mac_tb.vcd
$date
  Fri Mar 30 14:08:59 2007
$end
$version
  GHDL v0
$end
$timescale
  1 fs
$end
$var reg 4 ! a[3:0] $end
$var reg 4 " b[3:0] $end
$var reg 8 # acc[7:0] $end
$var reg 1 $ clk $end
$var reg 1 % reset $end
$scope module dut $end
$var reg 4 & a[3:0] $end
$var reg 4 ' b[3:0] $end
$var reg 1 ( clk $end
$var reg 1 ) rst $end
$var reg 8 * acc[7:0] $end
$var reg 8 + prod[7:0] $end
$var reg 8 , reg1[7:0] $end
$upscope $end
$enddefinitions $end
#0
b0000 !
b0000 "
bUUUUUUUU #
1$
1%
b0000 &
b0000 '
1(
1)
bUUUUUUUU *
bXXXXXXXX +
b00000000 ,
#5000000
b00000000 #
0%
0)
b00000000 *
b00000000 +
#10000000
0$
0(
#20000000
b0010 !
b0011 "
1$
b0010 &
b0011 '
1(
#30000000
0$
0(
b00000110 +
#40000000
b0100 !
b0110 "
1$
b0100 &
b0110 '
1(
b00000110 ,
#50000000
b00000110 #
0$
0(
b00000110 *
b00011000 +
#60000000
b0110 !
b1001 "
1$
b0110 &
b1001 '
1(
b00011110 ,
#70000000
b00011110 #
0$
0(
b00011110 *
b11010110 +
#80000000
b1000 !
b1000 "
1$
b1000 &
b1000 '
1(
b11110100 ,
#90000000
b11110100 #
0$
0(
b11110100 *
b01000000 +
#100000000
b1010 !
1$
b1010 &
1(
b00110100 ,
#110000000
b00110100 #
0$
0(
b00110100 *
b00110000 +
#120000000
b1100 !
1$
b1100 &
1(
b01100100 ,
#130000000
b01100100 #
0$
0(
b01100100 *
b00100000 +
#140000000
b1110 !
1$
b1110 &
1(
b01111111 ,
#150000000
b01111111 #
0$
0(
b01111111 *
b00010000 +
